%YAML 1.1
%TAG !u! tag:unity3d.com,2011:
--- !u!74 &7400000
AnimationClip:
  m_ObjectHideFlags: 0
  m_CorrespondingSourceObject: {fileID: 0}
  m_PrefabInstance: {fileID: 0}
  m_PrefabAsset: {fileID: 0}
  m_Name: BirdDeath
  serializedVersion: 6
  m_Legacy: 0
  m_Compressed: 0
  m_UseHighQualityCurve: 1
  m_RotationCurves: []
  m_CompressedRotationCurves: []
  m_EulerCurves: []
  m_PositionCurves: []
  m_ScaleCurves: []
  m_FloatCurves: []
  m_PPtrCurves:
  - curve:
    - time: 0
      value: {fileID: 21300000, guid: 34fafcf952c33d248bd954b4b7cb8f78, type: 3}
    - time: 0.06666667
      value: {fileID: 21300000, guid: 93726e846dd6c5840892dd1609a72a22, type: 3}
    - time: 0.13333334
      value: {fileID: 21300000, guid: 6515296b903b5fb42a418f0a43322dd8, type: 3}
    - time: 0.2
      value: {fileID: 21300000, guid: cd76d050efd7bb742be967ab5a3475a2, type: 3}
    - time: 0.26666668
      value: {fileID: 21300000, guid: 9a24f51a2ecf805499b275e0bfeae3b9, type: 3}
    - time: 0.33333334
      value: {fileID: 21300000, guid: b1bcef6275fa5ec42a30467f619ba892, type: 3}
    - time: 0.4
      value: {fileID: 21300000, guid: 2c522bf898650e9449088fe71e14067f, type: 3}
    - time: 0.46666667
      value: {fileID: 21300000, guid: ad0f588d70d2c8f4282d25ec407c04b2, type: 3}
    - time: 0.53333336
      value: {fileID: 21300000, guid: b9736af58fecfa549940e43da9b8da34, type: 3}
    - time: 0.6
      value: {fileID: 21300000, guid: a65f2c12a607d2544aaddda61d0d3c5c, type: 3}
    - time: 0.6666667
      value: {fileID: 21300000, guid: 0b36ef7ccfe85364b8c4307e82001b11, type: 3}
    attribute: m_Sprite
    path: 
    classID: 212
    script: {fileID: 0}
  m_SampleRate: 60
  m_WrapMode: 0
  m_Bounds:
    m_Center: {x: 0, y: 0, z: 0}
    m_Extent: {x: 0, y: 0, z: 0}
  m_ClipBindingConstant:
    genericBindings:
    - serializedVersion: 2
      path: 0
      attribute: 0
      script: {fileID: 0}
      typeID: 212
      customType: 23
      isPPtrCurve: 1
    pptrCurveMapping:
    - {fileID: 21300000, guid: 34fafcf952c33d248bd954b4b7cb8f78, type: 3}
    - {fileID: 21300000, guid: 93726e846dd6c5840892dd1609a72a22, type: 3}
    - {fileID: 21300000, guid: 6515296b903b5fb42a418f0a43322dd8, type: 3}
    - {fileID: 21300000, guid: cd76d050efd7bb742be967ab5a3475a2, type: 3}
    - {fileID: 21300000, guid: 9a24f51a2ecf805499b275e0bfeae3b9, type: 3}
    - {fileID: 21300000, guid: b1bcef6275fa5ec42a30467f619ba892, type: 3}
    - {fileID: 21300000, guid: 2c522bf898650e9449088fe71e14067f, type: 3}
    - {fileID: 21300000, guid: ad0f588d70d2c8f4282d25ec407c04b2, type: 3}
    - {fileID: 21300000, guid: b9736af58fecfa549940e43da9b8da34, type: 3}
    - {fileID: 21300000, guid: a65f2c12a607d2544aaddda61d0d3c5c, type: 3}
    - {fileID: 21300000, guid: 0b36ef7ccfe85364b8c4307e82001b11, type: 3}
  m_AnimationClipSettings:
    serializedVersion: 2
    m_AdditiveReferencePoseClip: {fileID: 0}
    m_AdditiveReferencePoseTime: 0
    m_StartTime: 0
    m_StopTime: 0.68333334
    m_OrientationOffsetY: 0
    m_Level: 0
    m_CycleOffset: 0
    m_HasAdditiveReferencePose: 0
    m_LoopTime: 0
    m_LoopBlend: 0
    m_LoopBlendOrientation: 0
    m_LoopBlendPositionY: 0
    m_LoopBlendPositionXZ: 0
    m_KeepOriginalOrientation: 0
    m_KeepOriginalPositionY: 1
    m_KeepOriginalPositionXZ: 0
    m_HeightFromFeet: 0
    m_Mirror: 0
  m_EditorCurves: []
  m_EulerEditorCurves: []
  m_HasGenericRootTransform: 0
  m_HasMotionFloatCurves: 0
  m_Events: []
